Import and plot spline data from AAA
…
## See spec(...) for full column specifications.

To check the head of the tibble, just do:

tongue

## # A tibble: 4,578 x 14
##    speaker seconds            rec.date               prompt    label
##  *   <chr>   <dbl>               <chr>                <chr>    <chr>
##  1    sc01  1.6305 29/11/2016 15:10:47 Dico pugu lentamente   max_TD
##  2    sc01  1.6250 29/11/2016 15:10:47 Dico pugu lentamente  NONS_TD
##  3    sc01  1.5745 29/11/2016 15:10:47 Dico pugu lentamente peak1_TD
##  4    sc01  1.5745 29/11/2016 15:10:47 Dico pugu lentamente peak2_TD
##  5    sc01  1.1115 29/11/2016 15:10:52 Dico pada lentamente   max_TT
##  6    sc01  1.1160 29/11/2016 15:10:52 Dico pada lentamente  NOFF_TT
##  7    sc01  1.1020 29/11/2016 15:10:52 Dico pada lentamente  NONS_TT
##  8    sc01  1.0485 29/11/2016 15:10:52 Dico pada lentamente peak1_TT
##  9    sc01  1.1485 29/11/2016 15:10:52 Dico pada lentamente peak2_TT
## 10    sc01  1.3145 29/11/2016 15:10:57 Dico poco lentamente   max_TD
## # ... with 4,568 more rows, and 9 more variables:
## #   TT.displacement.sm <dbl>, TT.velocity <dbl>, TT.velocity.abs <dbl>,
## #   TD.displacement.sm <dbl>, TD.velocity <dbl>, TD.velocity.abs <dbl>,
## #   fan <int>, X <dbl>, Y <dbl>
…
tongue <- mutate(tongue, word = stringr::word(prompt, 2)) %>%
    left_join(y = nonce) %>%
    mutate_if(is.character, as.factor)

## Joining, by = "word"

Let’s check tongue again.

tongue

## # A tibble: 4,578 x 25
##    speaker seconds            rec.date               prompt    label
##     <fctr>   <dbl>              <fctr>               <fctr>   <fctr>
##  1    sc01  1.6305 29/11/2016 15:10:47 Dico pugu lentamente   max_TD
##  2    sc01  1.6250 29/11/2016 15:10:47 Dico pugu lentamente  NONS_TD
##  3    sc01  1.5745 29/11/2016 15:10:47 Dico pugu lentamente peak1_TD
##  4    sc01  1.5745 29/11/2016 15:10:47 Dico pugu lentamente peak2_TD
##  5    sc01  1.1115 29/11/2016 15:10:52 Dico pada lentamente   max_TT
##  6    sc01  1.1160 29/11/2016 15:10:52 Dico pada lentamente  NOFF_TT
##  7    sc01  1.1020 29/11/2016 15:10:52 Dico pada lentamente  NONS_TT
##  8    sc01  1.0485 29/11/2016 15:10:52 Dico pada lentamente peak1_TT
##  9    sc01  1.1485 29/11/2016 15:10:52 Dico pada lentamente peak2_TT
## 10    sc01  1.3145 29/11/2016 15:10:57 Dico poco lentamente   max_TD
## # ... with 4,568 more rows, and 20 more variables:
## #   TT.displacement.sm <dbl>, TT.velocity <dbl>, TT.velocity.abs <dbl>,
## #   TD.displacement.sm <dbl>, TD.velocity <dbl>, TD.velocity.abs <dbl>,
## #   fan <int>, X <dbl>, Y <dbl>, word <fctr>, item <int>, ipa <fctr>,
## #   c1 <fctr>, c1phonation <fctr>, vowel <fctr>, anteropost <fctr>,
## #   height <fctr>, c2 <fctr>, c2phonation <fctr>, c2place <fctr>
…
