Using generalised additive models (GAM) with polar coordinates for assessing tongue contours • rticulate
…
                        Stefano Coretta

            2020-12-20

      Source: vignettes/polar-gams.Rmd
      polar-gams.Rmd

Read data

The package rticulate comes with a dataset containing spline data from two speakers of Italian.

library(rticulate)
data(tongue)
tongue
#> # A tibble: 3,612 x 28
#>    speaker seconds rec_date prompt label TT_displacement TT_velocity
#>    <fct>     <dbl> <fct>    <fct>  <fct>           <dbl>       <dbl>
#>  1 it01       1.31 29/11/2… Dico … max_…            67.1       36.6 
#>  2 it01       1.20 29/11/2… Dico … max_…            77.9       -7.73
#>  3 it01       1.08 29/11/2… Dico … max_…            65.9       21.1 
#>  4 it01       1.12 29/11/2… Dico … max_…            64.4        8.76
#>  5 it01       1.42 29/11/2… Dico … max_…            76.9       -4.72
#>  6 it01       1.35 29/11/2… Dico … max_…            78.1       -5.68
#>  7 it01       1.07 29/11/2… Dico … max_…            69.9      -40.0 
#>  8 it01       1.17 29/11/2… Dico … max_…            78.0       -7.31
#>  9 it01       1.28 29/11/2… Dico … max_…            67.1       34.5 
#> 10 it01       1.10 29/11/2… Dico … max_…            75.9      -23.5 
#> # … with 3,602 more rows, and 21 more variables: TT_abs_velocity <dbl>,
#> #   TD_displacement <dbl>, TD_velocity <dbl>, TD_abs_velocity <dbl>,
#> #   TR_displacement <dbl>, TR_velocity <dbl>, TR_abs_velocity <dbl>,
#> #   fan_line <int>, X <dbl>, Y <dbl>, word <fct>, item <dbl>, ipa <fct>,
#> #   c1 <fct>, c1_phonation <fct>, vowel <fct>, anteropost <fct>, height <fct>,
#> #   c2 <fct>, c2_phonation <fct>, c2_place <fct>
…
We can now obtain the predicted tongue contours. We set specific values for TR_abs_velocity using the values argument. Since we included a random smooth, which we want to remove now, we can do so by using exclude_terms. To learn how this argument works in detail, see vignette("predict-gam", package = "tidymv"). Note that you have to filter the output to remove repeated data (which arise because we are excluding a term, i.e. we set its coefficient to 0).

polar_pred <- predict_polar_gam(
  polar_2,
  values = list(TR_abs_velocity = seq(2, 24, 5)),
  exclude_terms = "s(X,word)"
) %>%
  filter(word == "paca") # filter data by choosing any value for word

polar_pred
#> # A tibble: 500 x 6
#>    c2_place TR_abs_velocity word  se.fit     X     Y
#>    <fct>              <dbl> <fct>  <dbl> <dbl> <dbl>
#>  1 coronal                2 paca    8.54  30.8  9.04
#>  2 coronal                2 paca    8.23  29.3  9.23
#>  3 coronal                2 paca    7.91  27.9  9.40
#>  4 coronal                2 paca    7.61  26.4  9.55
#>  5 coronal                2 paca    7.31  25.0  9.70
#>  6 coronal                2 paca    7.01  23.5  9.86
#>  7 coronal                2 paca    6.71  22.1 10.0 
#>  8 coronal                2 paca    6.41  20.7 10.2 
#>  9 coronal                2 paca    6.12  19.3 10.5 
#> 10 coronal                2 paca    5.83  17.9 10.7 
#> # … with 490 more rows
…
