Filter signals • rticulate
…
it01_dlc
#> # A tibble: 7,815 × 12
#>    `Client family name` date_time  time_rec time_annot Prompt `Annotation Title`
#>    <chr>                <chr>         <dbl>      <dbl> <chr>  <chr>             
#>  1 it01                 29/11/201…    0.670     0.0087 Dico … ultrasound        
#>  2 it01                 29/11/201…    0.670     0.0087 Dico … ultrasound        
#>  3 it01                 29/11/201…    0.670     0.0087 Dico … ultrasound        
#>  4 it01                 29/11/201…    0.670     0.0087 Dico … ultrasound        
#>  5 it01                 29/11/201…    0.670     0.0087 Dico … ultrasound        
#>  6 it01                 29/11/201…    0.670     0.0087 Dico … ultrasound        
#>  7 it01                 29/11/201…    0.670     0.0087 Dico … ultrasound        
#>  8 it01                 29/11/201…    0.670     0.0087 Dico … ultrasound        
#>  9 it01                 29/11/201…    0.670     0.0087 Dico … ultrasound        
#> 10 it01                 29/11/201…    0.670     0.0087 Dico … ultrasound        
#> # ℹ 7,805 more rows
#> # ℹ 6 more variables: knot <dbl>, spline <chr>, X <dbl>, Y <dbl>,
#> #   frame_id <int>, displ_id <dbl>
…
It’s important to remember to group the data by displ_id
when mutating, so that smoothing is applied to each displacement signal
individually (below, we do it with the new .by
argument).

it01_tongue <- it01_tongue |> 
  mutate(
    Y_sm = filter_signal(Y, order = 2, window_length = 7, apply = 2),
    .by = displ_id
  )

it01_tongue |> select(time_annot, Y, Y_sm)
#> # A tibble: 5,731 × 3
#>    time_annot     Y  Y_sm
#>         <dbl> <dbl> <dbl>
#>  1     0.0087  32.9  32.4
#>  2     0.0087  45.6  44.6
#>  3     0.0087  58.9  57.5
#>  4     0.0087  69.6  68.4
#>  5     0.0087  76.5  76.1
#>  6     0.0087  83.3  82.7
#>  7     0.0087  79.4  79.6
#>  8     0.0087  75.9  76.1
#>  9     0.0087  71.9  72.4
#> 10     0.0087  69.0  67.4
#> # ℹ 5,721 more rows
…
A cut-off frequency of 10-20 Hz works for most articulatory signals,
again it’s sensible to try a few values. Here we go with 10 Hz. The
sampling frequency also has to be specified.

it01_tongue <- it01_tongue |> 
  mutate(
    Y_smb = filter_signal(Y, filter = "butter", cutoff_freq = 10, sampling_freq = 67),
    .by = displ_id
  )

it01_tongue |> select(time_annot, Y, Y_smb)
#> # A tibble: 5,731 × 3
#>    time_annot     Y Y_smb
#>         <dbl> <dbl> <dbl>
#>  1     0.0087  32.9  32.9
#>  2     0.0087  45.6  45.6
#>  3     0.0087  58.9  58.9
#>  4     0.0087  69.6  69.6
#>  5     0.0087  76.5  76.5
#>  6     0.0087  83.3  83.3
#>  7     0.0087  79.4  79.4
#>  8     0.0087  75.9  75.9
#>  9     0.0087  71.9  71.8
#> 10     0.0087  69.0  68.9
#> # ℹ 5,721 more rows
…
it01_tongue_up <- it01_tongue |> 
  reframe(
    resample_signal(Y_sm, time_annot, by = 3),
    .by = displ_id
  )

# Nothing exceptional here, just doing some wrangling to get the info back
it01_tongue_up <- it01_tongue_up |> 
  left_join(y = it01_tongue |> select(Prompt, spline, knot, displ_id) |> distinct()) |> 
  rename(Y_sm_up = signal_int)
#> Joining with `by = join_by(displ_id)`

it01_tongue_up
#> # A tibble: 17,193 × 6
#>    displ_id time_int Y_sm_up Prompt               spline      knot
#>       <dbl>    <dbl>   <dbl> <chr>                <chr>      <dbl>
#>  1        5   0.0087    32.4 Dico pada lentamente DLC_Tongue     0
#>  2        5   0.0136    32.5 Dico pada lentamente DLC_Tongue     0
#>  3        5   0.0185    32.6 Dico pada lentamente DLC_Tongue     0
#>  4        5   0.0234    32.7 Dico pada lentamente DLC_Tongue     0
#>  5        5   0.0283    32.8 Dico pada lentamente DLC_Tongue     0
#>  6        5   0.0331    32.9 Dico pada lentamente DLC_Tongue     0
#>  7        5   0.0380    32.9 Dico pada lentamente DLC_Tongue     0
#>  8        5   0.0429    33.0 Dico pada lentamente DLC_Tongue     0
#>  9        5   0.0478    33.0 Dico pada lentamente DLC_Tongue     0
#> 10        5   0.0527    33.1 Dico pada lentamente DLC_Tongue     0
#> # ℹ 17,183 more rows
…
