Using generalised additive models (GAM) with polar coordinates for assessing tongue contours • rticulate
…
            2025-02-20

      Source: vignettes/polar-gams.Rmd
      polar-gams.Rmd

Read data

The package rticulate comes with a dataset containing
spline data from two speakers of Italian.

library(rticulate)
data(tongue)
tongue
#> # A tibble: 3,612 × 28
#>    speaker seconds rec_date            prompt  label TT_displacement TT_velocity
#>    <fct>     <dbl> <fct>               <fct>   <fct>           <dbl>       <dbl>
#>  1 it01       1.31 29/11/2016 15:10:57 Dico p… max_…            67.1       36.6 
#>  2 it01       1.20 29/11/2016 15:11:03 Dico p… max_…            77.9       -7.73
#>  3 it01       1.08 29/11/2016 15:11:25 Dico p… max_…            65.9       21.1 
#>  4 it01       1.12 29/11/2016 15:11:35 Dico p… max_…            64.4        8.76
#>  5 it01       1.42 29/11/2016 15:11:57 Dico p… max_…            76.9       -4.72
#>  6 it01       1.35 29/11/2016 15:12:53 Dico p… max_…            78.1       -5.68
#>  7 it01       1.07 29/11/2016 15:13:44 Dico p… max_…            69.9      -40.0 
#>  8 it01       1.17 29/11/2016 15:13:49 Dico p… max_…            78.0       -7.31
#>  9 it01       1.28 29/11/2016 15:14:11 Dico p… max_…            67.1       34.5 
#> 10 it01       1.10 29/11/2016 15:14:22 Dico p… max_…            75.9      -23.5 
#> # ℹ 3,602 more rows
#> # ℹ 21 more variables: TT_abs_velocity <dbl>, TD_displacement <dbl>,
#> #   TD_velocity <dbl>, TD_abs_velocity <dbl>, TR_displacement <dbl>,
#> #   TR_velocity <dbl>, TR_abs_velocity <dbl>, fan_line <int>, X <dbl>, Y <dbl>,
#> #   word <fct>, item <dbl>, ipa <fct>, c1 <fct>, c1_phonation <fct>,
#> #   vowel <fct>, anteropost <fct>, height <fct>, c2 <fct>, c2_phonation <fct>,
#> #   c2_place <fct>
…
polar_pred <- predict_polar_gam(
  polar_2,
  values = list(TR_abs_velocity = seq(2, 24, 5)),
  exclude_terms = "s(X,word)"
) %>%
  filter(word == "paca") # filter data by choosing any value for word

polar_pred
#> # A tibble: 500 × 6
#>    c2_place TR_abs_velocity word  se.fit     X     Y
#>    <fct>              <dbl> <fct>  <dbl> <dbl> <dbl>
#>  1 coronal                2 paca    2.78  31.0  9.75
#>  2 coronal                2 paca    2.53  29.6 10.0 
#>  3 coronal                2 paca    2.30  28.1 10.3 
#>  4 coronal                2 paca    2.10  26.7 10.5 
#>  5 coronal                2 paca    1.92  25.2 10.8 
#>  6 coronal                2 paca    1.76  23.8 11.0 
#>  7 coronal                2 paca    1.62  22.3 11.3 
#>  8 coronal                2 paca    1.49  20.9 11.5 
#>  9 coronal                2 paca    1.39  19.5 11.8 
#> 10 coronal                2 paca    1.32  18.0 12.1 
#> # ℹ 490 more rows
…
