Import and plot spline data from AAA • rticulate
…
## Rows: 11 Columns: 95
## ── Column specification ────────────────────────────────────────────────────────
## Delimiter: "\t"
## chr  (4): speaker, rec_date, prompt, label
## dbl (91): seconds, TT_displacement, TT_velocity, TT_abs_velocity, TD_displac...
## 
## ℹ Use `spec()` to retrieve the full column specification for this data.
## ℹ Specify the column types or set `show_col_types = FALSE` to quiet this message.

To check the head of the tibble, just do:

tongue

## # A tibble: 462 × 15
##    speaker seconds rec_date prompt label TT_di…¹ TT_ve…² TT_ab…³ TD_di…⁴ TD_ve…⁵
##    <chr>     <dbl> <chr>    <chr>  <chr>   <dbl>   <dbl>   <dbl>   <dbl>   <dbl>
##  1 it01       1.20 29/11/2… Dico … max_…    77.9   -7.73    5.10    67.3   -34.3
##  2 it01       1.20 29/11/2… Dico … max_…    77.9   -7.73    5.10    67.3   -34.3
##  3 it01       1.20 29/11/2… Dico … max_…    77.9   -7.73    5.10    67.3   -34.3
##  4 it01       1.20 29/11/2… Dico … max_…    77.9   -7.73    5.10    67.3   -34.3
##  5 it01       1.20 29/11/2… Dico … max_…    77.9   -7.73    5.10    67.3   -34.3
##  6 it01       1.20 29/11/2… Dico … max_…    77.9   -7.73    5.10    67.3   -34.3
##  7 it01       1.20 29/11/2… Dico … max_…    77.9   -7.73    5.10    67.3   -34.3
##  8 it01       1.20 29/11/2… Dico … max_…    77.9   -7.73    5.10    67.3   -34.3
##  9 it01       1.20 29/11/2… Dico … max_…    77.9   -7.73    5.10    67.3   -34.3
## 10 it01       1.20 29/11/2… Dico … max_…    77.9   -7.73    5.10    67.3   -34.3
## # … with 452 more rows, 5 more variables: TD_abs_velocity <dbl>,
## #   fan_line <int>, X <dbl>, Y <dbl>, .index <int>, and abbreviated variable
## #   names ¹​TT_displacement, ²​TT_velocity, ³​TT_abs_velocity, ⁴​TD_displacement,
## #   ⁵​TD_velocity
…
tongue <- mutate(tongue, word = word(prompt, 2)) %>%
    left_join(y = stimuli) %>%
    mutate_if(is.character, as.factor)

## Joining, by = "word"

Let’s check tongue again.

tongue

## # A tibble: 462 × 26
##    speaker seconds rec_date prompt label TT_di…¹ TT_ve…² TT_ab…³ TD_di…⁴ TD_ve…⁵
##    <fct>     <dbl> <fct>    <fct>  <fct>   <dbl>   <dbl>   <dbl>   <dbl>   <dbl>
##  1 it01       1.20 29/11/2… Dico … max_…    77.9   -7.73    5.10    67.3   -34.3
##  2 it01       1.20 29/11/2… Dico … max_…    77.9   -7.73    5.10    67.3   -34.3
##  3 it01       1.20 29/11/2… Dico … max_…    77.9   -7.73    5.10    67.3   -34.3
##  4 it01       1.20 29/11/2… Dico … max_…    77.9   -7.73    5.10    67.3   -34.3
##  5 it01       1.20 29/11/2… Dico … max_…    77.9   -7.73    5.10    67.3   -34.3
##  6 it01       1.20 29/11/2… Dico … max_…    77.9   -7.73    5.10    67.3   -34.3
##  7 it01       1.20 29/11/2… Dico … max_…    77.9   -7.73    5.10    67.3   -34.3
##  8 it01       1.20 29/11/2… Dico … max_…    77.9   -7.73    5.10    67.3   -34.3
##  9 it01       1.20 29/11/2… Dico … max_…    77.9   -7.73    5.10    67.3   -34.3
## 10 it01       1.20 29/11/2… Dico … max_…    77.9   -7.73    5.10    67.3   -34.3
## # … with 452 more rows, 16 more variables: TD_abs_velocity <dbl>,
## #   fan_line <int>, X <dbl>, Y <dbl>, .index <int>, word <fct>, item <dbl>,
## #   ipa <fct>, c1 <fct>, c1_phonation <fct>, vowel <fct>, anteropost <fct>,
## #   height <fct>, c2 <fct>, c2_phonation <fct>, c2_place <fct>, and abbreviated
## #   variable names ¹​TT_displacement, ²​TT_velocity, ³​TT_abs_velocity,
## #   ⁴​TD_displacement, ⁵​TD_velocity
…
