Transform spline coordinates between cartesian and polar • rticulate
…
      Transform spline coordinates between cartesian and polar

                        Stefano Coretta

            2022-09-04

      Source: vignettes/transform-coord.Rmd
      transform-coord.Rmd

It is possible to transform the coordinates of your spline data from cartesian to polar and vice versa, with transform_coord(). Let’s attach the package rticulate and load the data set tongue.

library(rticulate)
data(tongue)
tongue
#> # A tibble: 3,612 × 28
#>    speaker seconds rec_date prompt label TT_di…¹ TT_ve…² TT_ab…³ TD_di…⁴ TD_ve…⁵
#>    <fct>     <dbl> <fct>    <fct>  <fct>   <dbl>   <dbl>   <dbl>   <dbl>   <dbl>
#>  1 it01       1.31 29/11/2… Dico … max_…    67.1   36.6    37.5     81.8   -4.95
#>  2 it01       1.20 29/11/2… Dico … max_…    77.9   -7.73    5.10    67.3  -34.3 
#>  3 it01       1.08 29/11/2… Dico … max_…    65.9   21.1    20.9     81.8   -4.07
#>  4 it01       1.12 29/11/2… Dico … max_…    64.4    8.76    6.46    81.5   -2.55
#>  5 it01       1.42 29/11/2… Dico … max_…    76.9   -4.72    2.55    75.8  -58.0 
#>  6 it01       1.35 29/11/2… Dico … max_…    78.1   -5.68    3.60    73.2   20.5 
#>  7 it01       1.07 29/11/2… Dico … max_…    69.9  -40.0    40.0     82.4   -5.12
#>  8 it01       1.17 29/11/2… Dico … max_…    78.0   -7.31    4.37    69.3   -3.37
#>  9 it01       1.28 29/11/2… Dico … max_…    67.1   34.5    33.4     81.4   -5.28
#> 10 it01       1.10 29/11/2… Dico … max_…    75.9  -23.5    22.0     81.0   -2.89
#> # … with 3,602 more rows, 18 more variables: TD_abs_velocity <dbl>,
#> #   TR_displacement <dbl>, TR_velocity <dbl>, TR_abs_velocity <dbl>,
#> #   fan_line <int>, X <dbl>, Y <dbl>, word <fct>, item <dbl>, ipa <fct>,
#> #   c1 <fct>, c1_phonation <fct>, vowel <fct>, anteropost <fct>, height <fct>,
#> #   c2 <fct>, c2_phonation <fct>, c2_place <fct>, and abbreviated variable
#> #   names ¹​TT_displacement, ²​TT_velocity, ³​TT_abs_velocity, ⁴​TD_displacement,
#> #   ⁵​TD_velocity
…
